%YAML 1.1
%TAG !u! tag:unity3d.com,2011:
--- !u!114 &11400000
MonoBehaviour:
  m_ObjectHideFlags: 0
  m_CorrespondingSourceObject: {fileID: 0}
  m_PrefabInstance: {fileID: 0}
  m_PrefabAsset: {fileID: 0}
  m_GameObject: {fileID: 0}
  m_Enabled: 1
  m_EditorHideFlags: 0
  m_Script: {fileID: 11500000, guid: 7eb4b3b59bd1244e8a8ebf4e3cc5f2e0, type: 3}
  m_Name: GameConfigs (Backup)
  m_EditorClassIdentifier: 
  CameraMovementSpeed: 17
  CameraRotationSpeed: 10
  CameraRootMultiplierOnScale: 0.9
  CameraRootMultiplierInVoxelState: 0.5
  CameraTransitionTimeInVoxelState: 0.1
  CameraTransitionTimeInSolidState: 1
  JetPackParticlesLengthMultiplier: 7
  JetPackMinFuelToAnimate: 0.25
  JetPackParticlesStartColor: {r: 1, g: 0.050980393, b: 0, a: 1}
  JetPackParticlesEndColor: {r: 1, g: 0.76862746, b: 0, a: 1}
  PlatformLengths:
  - 100
  - 200
  - 300
  - 400
  - 500
  - 600
  - 700
  - 800
  - 900
  - 1000
  NpcSpawnGap:
    MinValue: 20
    MaxValue: 30
  NpcDragRange:
    MinValue: 5
    MaxValue: 10
  NpcToSpawn: 5
  NpcNormalDistancePerSecondRange:
    MinValue: 16
    MaxValue: 18
  NpcMaxDistancePerSecondRange:
    MinValue: 20.5
    MaxValue: 22
  NpcMinDistancePerSecondRange:
    MinValue: 14
    MaxValue: 16
  NpcHurdleRaycastDistance: 10
  NpcHurdleRaycastDelay: 0.1
  NpcDragTime: 0.4
  NpcBehaviourDelay: 1.5
  NpcResumeBehaviourWait: 3
  NpcConversionToVoxelProb: 0.2
  NpcDistanceFromPlayerToDie: 100
  NpcMaxDistanceFromPlayer: 50
  NpcMinDistanceFromPlayer: 15
  NpcBoostProbToCatchUpPlayer: 0.3
  NpcHurdleLayerMask:
    serializedVersion: 2
    m_Bits: 0
  NpcColors:
  - {r: 0.6431373, g: 0.34117648, b: 0.07058824, a: 1}
  - {r: 0.6431373, g: 0.5803922, b: 0.07450981, a: 1}
  - {r: 0.07450981, g: 0.6431373, b: 0.36862746, a: 1}
  - {r: 0.49803922, g: 0.15294118, b: 0.7372549, a: 1}
  - {r: 0.07450981, g: 0.40784314, b: 0.6431373, a: 1}
  SinglePlatformLength: 5
  MinMidPlatformsToSpawn: 40
  MaxMidPlatformsToSpawn: 70
  GapInPlatformRange:
    MinValue: 40
    MaxValue: 80
  ConnectorXRange:
    MinValue: -2
    MaxValue: 2
  DualConnectorProbability: 0.5
  PlayerDistancePerSecond: 20
  PlayerMovementSpeed: 17
  PlayerRotationSpeed: 10
  PlayerAccelerationSpeed: 5
  PlayerInitialAcceleration: 0.2
  PlayerDragSpeed: 1
  PlayerMaxDragRotation: 30
  PlayerBoostInVoxel: 4
  PlayerBoostInitialImpact: 3
  PlayerBoostImpactOverSpeed: 2
  PlayerDeteriorationRate: 0.35
  PlayerMinFuelToConvert: 0.35
  PlayerInitialFuel: 1
  PlayerCollapseStartTime: 0
  PlayerFlyHeight: 0.45
  PlayerRightBounds:
    MinValue: -5.5
    MaxValue: 5.5
  PlayerColor: {r: 0.6431373, g: 0.14117648, b: 0.14117648, a: 1}
  InputDragSpeed: 0.5
  InputSwipeThreshold: 1
